Easy Text Analysis on ABC News Headlines
…
## The following objects are masked from 'package:base':
## 
##     intersect, setdiff, setequal, union

library(ggplot2)

## Warning: package 'ggplot2' was built under R version 3.4.2

news %>% group_by(publish_date) %>% count() %>% arrange(desc(n))

## Warning: package 'bindrcpp' was built under R version 3.4.1

## # A tibble: 5,422 x 2
## # Groups:   publish_date [5,422]
##    publish_date     n
##           <int> <int>
##  1     20120824   384
##  2     20130412   384
##  3     20110222   380
##  4     20130514   380
##  5     20120814   379
##  6     20121017   379
##  7     20130416   379
##  8     20120801   377
##  9     20121023   377
## 10     20130328   377
## # ... with 5,412 more rows
…
